kavya sankalan,hindi,b b singh,bpb publication,500,0,0,160,StockIn
accounting,commerece,b b singh,bpb publication,500,0,0,160,StockIn
calculas,math,b b singh,bpb publication,500,0,0,160,StockIn
biology,science,b b singh,bpb publication,500,0,0,160,StockIn
 gadya sankalan,hindi,b b singh,bpb publication,500,0,0,160,StockIn
banking,commerece,b b singh,bpb publication,500,0,0,160,StockIn
oops,java,b b singh,bpb publication,500,0,0,160,StockIn
